[
  {
    "id": "287e3da1-c4b2-4ec3-ae18-39bdd5903f3a",
    "name": "Tuna",
    "breed": "Siamese"
  },
  {
    "id": "2823c2e1-9cbf-470a-88dc-bc8691f4d65f",
    "name": "Chester",
    "breed": "Tabby"
  },
  {
    "id": "2f6a0a8b-1fd4-4294-b7e5-21857903fa99",
    "name": "Blue",
    "breed": "Naked"
  },
  {
    "id": "76084262-9ee3-40af-ab29-fa1ce6cb99a8",
    "name": "Cindy",
    "breed": "Tabby"
  },
  {
    "id": "305eb915-1c40-4db7-928a-abbf1014ab6d",
    "name": "Sally",
    "breed": "Burmese"
  }
]
